com/fo/foserver/util/sms/Sms.class
com/fo/foserver/util/serialization/JsonSerialization.class
com/fo/foserver/util/base/RandomSort.class
com/fo/foserver/util/base/KeyUtil.class
com/fo/foserver/util/http/HttpClientService.class
com/fo/foserver/util/base/JsonUtil.class
com/fo/foserver/util/http/HttpUtils.class
com/fo/foserver/util/base/DataTypeUtil.class
com/fo/foserver/util/serialization/Serializations.class
com/fo/foserver/util/result/MsgException.class
com/fo/foserver/util/base/NumberUtil.class
com/fo/foserver/util/base/StringUtil.class
com/fo/foserver/util/base/IdCardUtil.class
com/fo/foserver/util/base/ArithmeticUtil.class
com/fo/foserver/util/serialization/Serialization.class
com/fo/foserver/util/base/ObjectUtil.class
com/fo/foserver/util/base/CacheService.class
com/fo/foserver/util/serialization/KryoSerialization.class
com/fo/foserver/util/base/Money.class
com/fo/foserver/util/sms/JavaSmsApi.class
com/fo/foserver/util/base/ArrayUtil.class
com/fo/foserver/util/result/Result.class
com/fo/foserver/util/result/Msg.class
com/fo/foserver/util/serialization/KryoSerialization$1.class
com/fo/foserver/util/base/DateUtil.class
com/fo/foserver/util/sms/SignUtil.class
com/fo/foserver/util/http/HttpUtils$1.class
com/fo/foserver/util/base/ResultUtil.class
com/fo/foserver/util/base/BCrypt.class
com/fo/foserver/util/img/ImgConfig.class
com/fo/foserver/util/base/ApplicationContextUtil.class
com/fo/foserver/util/sms/SmsEnum.class
com/fo/foserver/util/img/TempFile.class
com/fo/foserver/util/base/MatrixToImageWriter.class
com/fo/foserver/util/img/ImgService.class
com/fo/foserver/util/http/HttpClientService$URLRequest.class
com/fo/foserver/util/http/HttpClientService$1.class
com/fo/foserver/util/base/SpringContextHolder.class
com/fo/foserver/util/base/HtmlUtil.class
com/fo/foserver/util/base/ValidateUtil.class
